module gitlab.com/anggar/goldie

go 1.19

require (
	github.com/gorilla/mux v1.8.0
	github.com/jmoiron/sqlx v1.3.5
	github.com/joho/godotenv v1.4.0
	github.com/lib/pq v1.10.7
)

require (
	github.com/klauspost/compress v1.15.9 // indirect
	github.com/pierrec/lz4/v4 v4.1.15 // indirect
	github.com/segmentio/kafka-go v0.4.38 // indirect
	github.com/teris-io/shortid v0.0.0-20220617161101-71ec9f2aa569 // indirect
)
